${AnsiColor.BRIGHT_YELLOW}
 ____           _____ _
 \ \ \  __/\__ |  ___| |_   ___  ____      ____ _ _   _
  \ \ \ \    / | |_  | | | | \ \/ /\ \ /\ / / _` | | | |
  / / / /_  _\ |  _| | | |_| |>  <  \ V  V / (_| | |_| |
 /_/_/    \/   |_|   |_|\__,_/_/\_\  \_/\_/ \__,_|\__, |
                                                  |___/
  :::::: DUBBO/HTTP/RPC -> REACTIVE GATEWAY ::::::
  :: Email: yongjia-chen@outlook.com
  :: Project: https://github.com/nextabc-org/fluxway
${AnsiColor.CYAN}
